8 MMs and AMCEs with frequentist multinomial regression – The Conjoint Cookbook
…
paired_grid

# A tibble: 132 × 7
   price packaging       flavor    price_alt2 packaging_alt2    flavor_alt2 choice_id
   <fct> <fct>           <fct>     <fct>      <fct>             <fct>           <int>
 1 $2    Plastic + paper Chocolate $2         Plastic + paper   Nuts                1
 2 $2    Plastic + paper Chocolate $2         Plastic + sticker Chocolate           2
 3 $2    Plastic + paper Chocolate $2         Plastic + sticker Nuts                3
 4 $2    Plastic + paper Chocolate $3         Plastic + paper   Chocolate           4
 5 $2    Plastic + paper Chocolate $3         Plastic + paper   Nuts                5
 6 $2    Plastic + paper Chocolate $3         Plastic + sticker Chocolate           6
 7 $2    Plastic + paper Chocolate $3         Plastic + sticker Nuts                7
 8 $2    Plastic + paper Chocolate $4         Plastic + paper   Chocolate           8
 9 $2    Plastic + paper Chocolate $4         Plastic + paper   Nuts                9
10 $2    Plastic + paper Chocolate $4         Plastic + sticker Chocolate          10
# ℹ 122 more rows
…
    mutate(alt = 1),
  # Alternative 2
  paired_grid |>
    select(
      choice_id,
      price = price_alt2, 
      packaging = packaging_alt2,
      flavor = flavor_alt2
    ) |>
    mutate(alt = 2)
) |>
  arrange(choice_id, alt)
paired_grid_long

# A tibble: 264 × 5
   choice_id price packaging         flavor      alt
       <int> <fct> <fct>             <fct>     <dbl>
 1         1 $2    Plastic + paper   Chocolate     1
 2         1 $2    Plastic + paper   Nuts          2
 3         2 $2    Plastic + paper   Chocolate     1
 4         2 $2    Plastic + sticker Chocolate     2
 5         3 $2    Plastic + paper   Chocolate     1
 6         3 $2    Plastic + sticker Nuts          2
 7         4 $2    Plastic + paper   Chocolate     1
 8         4 $3    Plastic + paper   Chocolate     2
 9         5 $2    Plastic + paper   Chocolate     1
10         5 $3    Plastic + paper   Nuts          2
# ℹ 254 more rows
…
Bootstrapping is flexible!

The example below uses {mlogit}, but the same approach will work for any of the multinomial logistic regression packages. As long as you can fit a model and generate predicted probabilities with it, you can repeat that process over and over on different versions of your data to simulate a confidence interval.

8.3.1 Randomly resample the original data

First we’ll use bootstraps() to randomly resample the original data 1,000 times. With data that lacks a nested structure, this is as straightforward as running bootstraps(name_of_data, times = 1000). However, if we do that here, pairs of questions will be separated. Every respondent has 24 rows: 2 alternatives across 12 questions. We need to keep this respondent-level data together when resampling.

One way to ensure this happens is to group by respondent ID and then nest the remaining data into a list column:

stickers |>
  group_by(resp_id) |> 
  nest()

# A tibble: 295 × 2
# Groups:   resp_id [295]
   resp_id data              
     <dbl> <list>            
 1       4 <tibble [24 × 10]>
 2       5 <tibble [24 × 10]>
 3       6 <tibble [24 × 10]>
 4       7 <tibble [24 × 10]>
 5       8 <tibble [24 × 10]>
 6       9 <tibble [24 × 10]>
 7      10 <tibble [24 × 10]>
 8      11 <tibble [24 × 10]>
 9      12 <tibble [24 × 10]>
10      13 <tibble [24 × 10]>
# ℹ 285 more rows
…
set.seed(841630)  # From random.org

bootstrapped_stickers <- stickers |>
  group_by(resp_id) |> 
  nest() |> 
  ungroup() |> 
  bootstraps(
    times = 1000
  )

We can confirm this if we look at one of the bootstrapped samples. Each respondent still has their associated data:

bootstrapped_stickers$splits[[1]] |> analysis()

# A tibble: 295 × 2
   resp_id data              
     <dbl> <list>            
 1      49 <tibble [24 × 10]>
 2     170 <tibble [24 × 10]>
 3      11 <tibble [24 × 10]>
 4     102 <tibble [24 × 10]>
 5     177 <tibble [24 × 10]>
 6     254 <tibble [24 × 10]>
 7     153 <tibble [24 × 10]>
 8       5 <tibble [24 × 10]>
 9     289 <tibble [24 × 10]>
10     298 <tibble [24 × 10]>
# ℹ 285 more rows
…
Then we’ll feed each bootstrapped sample into our fit_predict_mlogit() function. This will take a while!

boot_results <- bootstrapped_stickers |>
  mutate(boot_fits = map(splits, fit_predict_mlogit, feature_grid = paired_grid_long))

We now have a column with the average predicted probabilities for each of the 12 combinations of conjoint features for each bootstrapped dataset.

boot_results

# Bootstrap sampling 
# A tibble: 1,000 × 3
   splits            id            boot_fits          
   <list>            <chr>         <list>             
 1 <split [295/106]> Bootstrap0001 <gropd_df [12 × 4]>
 2 <split [295/113]> Bootstrap0002 <gropd_df [12 × 4]>
 3 <split [295/114]> Bootstrap0003 <gropd_df [12 × 4]>
 4 <split [295/110]> Bootstrap0004 <gropd_df [12 × 4]>
 5 <split [295/113]> Bootstrap0005 <gropd_df [12 × 4]>
 6 <split [295/117]> Bootstrap0006 <gropd_df [12 × 4]>
 7 <split [295/113]> Bootstrap0007 <gropd_df [12 × 4]>
 8 <split [295/106]> Bootstrap0008 <gropd_df [12 × 4]>
 9 <split [295/113]> Bootstrap0009 <gropd_df [12 × 4]>
10 <split [295/111]> Bootstrap0010 <gropd_df [12 × 4]>
# ℹ 990 more rows
…
8.3.3 Aggregate the results from each model

As before, we can calculate marginal means by calculating group averages for the different conjoint features in this balanced reference grid. Since we’re working with 1,000 data frames instead of just 1, we’ll need to use map() to group and summarize. The estimate column here shows the marginal mean for each packaging condition in each of the bootstrapped samples:

mms_packaging <- boot_results |> 
  mutate(mms = map(boot_fits, \(.x) {
    .x |> 
      group_by(packaging) |> 
      summarize(estimate = mean(estimate))
  })) |> 
  unnest(mms)
mms_packaging

# A tibble: 2,000 × 5
   splits            id            boot_fits           packaging         estimate
   <list>            <chr>         <list>              <fct>                <dbl>
 1 <split [295/106]> Bootstrap0001 <gropd_df [12 × 4]> Plastic + paper      0.451
 2 <split [295/106]> Bootstrap0001 <gropd_df [12 × 4]> Plastic + sticker    0.562
 3 <split [295/113]> Bootstrap0002 <gropd_df [12 × 4]> Plastic + paper      0.451
 4 <split [295/113]> Bootstrap0002 <gropd_df [12 × 4]> Plastic + sticker    0.563
 5 <split [295/114]> Bootstrap0003 <gropd_df [12 × 4]> Plastic + paper      0.446
 6 <split [295/114]> Bootstrap0003 <gropd_df [12 × 4]> Plastic + sticker    0.552
 7 <split [295/110]> Bootstrap0004 <gropd_df [12 × 4]> Plastic + paper      0.449
 8 <split [295/110]> Bootstrap0004 <gropd_df [12 × 4]> Plastic + sticker    0.552
 9 <split [295/113]> Bootstrap0005 <gropd_df [12 × 4]> Plastic + paper      0.442
10 <split [295/113]> Bootstrap0005 <gropd_df [12 × 4]> Plastic + sticker    0.564
# ℹ 1,990 more rows
…
n_alt <- 2

choice_sets_long <- alts |>
  (\(x) combn(seq_len(nrow(x)), m = n_alt, simplify = FALSE))() |>
  map(\(idx) {
    alts[idx, ] |>
      mutate(obsID = cur_group_id(), alt = seq_len(n_alt))
  }) |>
  list_rbind(names_to = "obsID") |>
  mutate(obsID = as.integer(obsID)) |>
  arrange(obsID, alt) |>
  as_tibble()
choice_sets_long

# A tibble: 132 × 5
   price packaging         flavor    obsID   alt
   <fct> <fct>             <fct>     <int> <int>
 1 $2    Plastic + paper   Chocolate     1     1
 2 $2    Plastic + paper   Nuts          1     2
 3 $2    Plastic + paper   Chocolate     2     1
 4 $2    Plastic + sticker Chocolate     2     2
 5 $2    Plastic + paper   Chocolate     3     1
 6 $2    Plastic + sticker Nuts          3     2
 7 $2    Plastic + paper   Chocolate     4     1
 8 $3    Plastic + paper   Chocolate     4     2
 9 $2    Plastic + paper   Chocolate     5     1
10 $3    Plastic + paper   Nuts          5     2
# ℹ 122 more rows
…
