9 MMs and AMCEs with Bayesian multinomial logistic regression – The Conjoint Cookbook
…
stickers <- readRDS("data/processed_data/study_5_sticker.rds")

stickers_choice_alt <- stickers |>
  mutate(choice_alt = factor(alt * choice))

stickers_choice_alt |>
  select(resp_id, question, price, packaging, flavor, choice, choice_alt)

# A tibble: 7,080 × 7
   resp_id question price packaging         flavor    choice choice_alt
     <dbl>    <dbl> <fct> <fct>             <fct>      <dbl> <fct>     
 1       4        1 $3    Plastic + sticker Chocolate      1 1         
 2       4        1 $2    Plastic + paper   Nuts           0 0         
 3       4        2 $3    Plastic + sticker Nuts           0 0         
 4       4        2 $2    Plastic + paper   Chocolate      1 2         
 5       4        3 $4    Plastic + paper   Chocolate      1 1         
 6       4        3 $2    Plastic + sticker Chocolate      0 0         
 7       4        4 $2    Plastic + sticker Chocolate      1 1         
 8       4        4 $4    Plastic + paper   Nuts           0 0         
 9       4        5 $4    Plastic + sticker Chocolate      1 1         
10       4        5 $2    Plastic + paper   Nuts           0 0         
# ℹ 7,070 more rows
…
