11 Utilities and predictions with Bayesian multinomial regression – The Conjoint Cookbook
…
stickers <- readRDS("data/processed_data/study_5_sticker.rds")

stickers_choice_alt <- stickers |>
  mutate(choice_alt = factor(alt * choice))

stickers_choice_alt |>
  select(resp_id, question, price, packaging, flavor, choice, choice_alt)

# A tibble: 7,080 × 7
   resp_id question price packaging         flavor    choice choice_alt
     <dbl>    <dbl> <fct> <fct>             <fct>      <dbl> <fct>     
 1       4        1 $3    Plastic + sticker Chocolate      1 1         
 2       4        1 $2    Plastic + paper   Nuts           0 0         
 3       4        2 $3    Plastic + sticker Nuts           0 0         
 4       4        2 $2    Plastic + paper   Chocolate      1 2         
 5       4        3 $4    Plastic + paper   Chocolate      1 1         
 6       4        3 $2    Plastic + sticker Chocolate      0 0         
 7       4        4 $2    Plastic + sticker Chocolate      1 1         
 8       4        4 $4    Plastic + paper   Nuts           0 0         
 9       4        5 $4    Plastic + sticker Chocolate      1 1         
10       4        5 $2    Plastic + paper   Nuts           0 0         
# ℹ 7,070 more rows
…
11.2.2 Individual part-worths

population_effects <- stickers_cat_marginalized |> 
  rename(value_population = .value)

population_effects

# A tibble: 80,000 × 5
# Groups:   .variable, .draw, .chain [80,000]
   .variable .draw .chain .iteration value_population
   <chr>     <int>  <int>      <int>            <dbl>
 1 Intercept     1      1          1             1.13
 2 Intercept     2      1          2             1.47
 3 Intercept     3      1          3             1.47
 4 Intercept     4      1          4             1.40
 5 Intercept     5      1          5             1.33
 6 Intercept     6      1          6             1.35
 7 Intercept     7      1          7             1.33
 8 Intercept     8      1          8             1.18
 9 Intercept     9      1          9             1.22
10 Intercept    10      1         10             1.17
# ℹ 79,990 more rows
…
